[gd_scene load_steps=6 format=3 uid="uid://fwe554mjd8pa"]

[ext_resource type="Texture2D" uid="uid://bt8neeia0gpgk" path="res://assets/sprites/enemies/revizor/enemy_revizor.16x.png" id="1_pio87"]
[ext_resource type="Texture2D" uid="uid://dqhrsdqb2uyeg" path="res://assets/sprites/enemies/ruka_attack.16x.png" id="2_jpb3j"]

[sub_resource type="SpriteFrames" id="SpriteFrames_c1ivi"]
animations = [{
"frames": [{
"duration": 1.0,
"texture": ExtResource("1_pio87")
}],
"loop": true,
"name": &"default",
"speed": 5.0
}]

[sub_resource type="SpriteFrames" id="SpriteFrames_xkj1i"]
animations = [{
"frames": [{
"duration": 1.0,
"texture": ExtResource("2_jpb3j")
}],
"loop": true,
"name": &"default",
"speed": 5.0
}]

[sub_resource type="CapsuleShape3D" id="CapsuleShape3D_mosfd"]

[node name="Enemy" type="Enemy"]
metadata/_edit_group_ = true

[node name="EnemySprite" type="AnimatedSprite3D" parent="."]
transform = Transform3D(0.25, 0, 0, 0, 0.25, 0, 0, 0, 0.25, 0, 0, 0)
billboard = 1
sprite_frames = SubResource("SpriteFrames_c1ivi")

[node name="WeaponSprite" type="AnimatedSprite3D" parent="EnemySprite"]
transform = Transform3D(1, 0, 0, 0, 1, 0, 0, 0, 1, 0, 0, 0.0154741)
billboard = 1
sprite_frames = SubResource("SpriteFrames_xkj1i")

[node name="EnemyHitbox" type="CollisionShape3D" parent="."]
transform = Transform3D(0.7, 0, 0, 0, 0.7, 0, 0, 0, 0.7, 0, 0, 0.00769043)
shape = SubResource("CapsuleShape3D_mosfd")
