[gd_scene load_steps=2 format=3 uid="uid://27y051yqo54b"]

[ext_resource type="Texture2D" uid="uid://br80ka02p4aiy" path="res://assets/hud/health.png" id="1_k0ltm"]

[node name="Heart" type="TextureRect"]
size_flags_horizontal = 3
size_flags_vertical = 3
texture = ExtResource("1_k0ltm")
stretch_mode = 4
flip_v = true
