[gd_scene load_steps=2 format=3 uid="uid://b6l327ievbwck"]

[ext_resource type="Script" path="res://scenes/player_data.gd" id="1_52j6e"]

[node name="PlayerData" type="Node"]
script = ExtResource("1_52j6e")
